<?xml version="1.0" encoding="UTF-8"?>
<session version="1.0">
<refactoring comment="Rename type &apos;Assign01.Assign01&apos; to &apos;Assign02&apos;&#x0D;&#x0A;- Original project: &apos;Assignment02&apos;&#x0D;&#x0A;- Original element: &apos;Assign01.Assign01&apos;&#x0D;&#x0A;- Renamed element: &apos;Assign01.Assign02&apos;&#x0D;&#x0A;- Update references to refactored element&#x0D;&#x0A;- Update textual occurrences in comments and strings" description="Rename type &apos;Assign01&apos;" flags="589830" id="org.eclipse.jdt.ui.rename.type" input="/src&lt;Assign01{Assign01.java[Assign01" matchStrategy="1" name="Assign02" qualified="false" references="true" similarDeclarations="false" stamp="1632310378185" textual="false" version="1.0"/>
</session>